{
  "name": "tgGridIE7Polyfill",
  "title": "tgGrid IE7 Polyfill",
  "description": "This is a polyfill to allow the tgGrid to work in IE7",
  "version": "1.0.0",
  "homepage": "https://github.com/tgui/tgGridIE7Polyfill",
  "author": {
    "name": "Ed McPadden",
    "email": "emcpadden@gmail.com"
  },
  "repository": {
    "type": "git",
    "url": "git://github.com/tgui/tgGridIE7Polyfill.git"
  },
  "bugs": "https://github.com/tgui/tgGridIE7Polyfill/issues",
  "dependencies": {
    "jquery": "*"
  },
  "keywords": []
}